# Blender v2.66 (sub 1) OBJ File: ''
# www.blender.org
mtllib groundPlane.mtl
o Plane

v 1.000000 0.000000 1.000000

v -1.000000 0.000000 1.000000

v 1.000000 0.000000 -1.000000

v -1.000000 0.000000 -1.000000

vt 0.0 0.0

vt 10.0 0.0
vt 10.0 10.0
vt 0.0 10
vn 0.000000 1.000000 -0.000000

usemtl None
s off
f 2/1/1 1/2/1 3/3/1
f 4/4/1 2/1/1 3/3/1
